{
 "language": "zh",
 "plugins": [
 		 "todo",
     "-lunr",
     "-search",
     "search-pro",
     "chapter-fold",
     "expandable-chapters",
     "splitter",
     "back-to-top-button",
     "hide-element",
     "code",
     "popup",
     "auto-scroll-table",
     "pageview-count",
     "ancre-navigation",
     "flexible-alerts",
     "js-sequence-diagram-full@>=0.3.1"
 ],
 "pluginsConfig": {
     "hide-element": {
         "elements": [
             ".gitbook-link"
         ]
     }
 }
}